exampleCSV.csv

#Digilent WaveForms Oscilloscope Acquisition
#Device Name: Sound Card
#Serial Number: 
#Date Time: 2021-03-02 17:08:58.776
#Sample rate: 96000Hz
#Samples: 16384
#Trigger: Source: Channel 1 Type: Edge Condition: Rising Level: 0 V Hyst.: Auto HoldOff: 0 s
#Channel 1: Range: 200 mV/div Offset: 0 V Attenuation: 1 X
#Channel 2: Range: 200 mV/div Offset: 0 V Attenuation: 1 X
#Wavegen Channel 1: Running
#Mode: Simple
#Type: Pulse
#Frequency: 1 kHz
#Period: 1 ms
#Amplitude: 1 V
#Offset: 0 V
#Symmetry: 50 %
#Phase: 0 °

Time (s),Channel 1 (V),Channel 2 (V)
-0.08506310483870967,-0.191741943359375,-0.191741943359375
-0.08505268817204301,-0.19488525390625,-0.194915771484375
-0.08504227150537634,-0.19757080078125,-0.197601318359375
-0.08503185483870968,-0.19970703125,-0.19970703125
-0.08502143817204301,-0.20172119140625,-0.20172119140625
-0.08501102150537634,-0.203887939453125,-0.20391845703125
-0.08500060483870968,-0.205780029296875,-0.205780029296875
-0.08499018817204301,-0.2070922851562488,-0.2070922851562488
-0.08497977150537635,-0.2082519531249989,-0.2082519531249989
-0.08496935483870967,-0.2098693847656264,-0.2098693847656264
-0.084958938172043,-0.2114257812500005,-0.2113952636718755
-0.08494852150537634,-0.211944580078125,-0.211944580078125
-0.08493810483870967,-0.212066650390625,-0.212066650390625
-0.08492768817204301,-0.213836669921875,-0.213836669921875
-0.08491727150537634,-0.217132568359375,-0.21710205078125
-0.08490685483870967,-0.217071533203125,-0.217041015625
-0.08489643817204301,-0.2071533203125,-0.2071533203125
-0.08488602150537634,-0.185394287109375,-0.1854248046875
-0.08487560483870968,-0.156707763671875,-0.15673828125
-0.08486518817204301,-0.1282653808594009,-0.1282653808594009
-0.08485477150537635,-0.1036071777343974,-0.1036071777343974
-0.08484435483870967,-0.08166503906248079,-0.08169555664060577
-0.084833938172043,-0.06054687499998138,-0.06054687499998138
-0.08482352150537634,-0.040069580078125,-0.040069580078125
-0.08481310483870967,-0.021240234375,-0.021209716796875
-0.08480268817204301,-0.004150390625,-0.004150390625
-0.08479227150537634,0.011932373046875,0.011932373046875
-0.08478185483870967,0.02740478515625,0.02740478515625
-0.08477143817204301,0.04193115234375,0.041900634765625
-0.08476102150537634,0.05517578125,0.05517578125
-0.08475060483870968,0.0675048828125,0.0675048828125
-0.08474018817204301,0.07922363281248934,0.07925415039061431
-0.08472977150537635,0.09036254882811487,0.0903625488281149
-0.08471935483870967,0.1007080078125087,0.1007080078125087
-0.084708938172043,0.1102905273437582,0.1102905273437582
-0.08469852150537634,0.11932373046875,0.11932373046875
-0.08468810483870967,0.127838134765625,0.127838134765625
-0.08467768817204301,0.135650634765625,0.135650634765625
-0.08466727150537634,0.142791748046875,0.142822265625
-0.08465685483870967,0.149505615234375,0.149505615234375
-0.08464643817204301,0.155853271484375,0.1558837890625
-0.08463602150537634,0.16180419921875,0.16180419921875
-0.08462560483870968,0.16717529296875,0.16717529296875
-0.08461518817204301,0.1721191406249955,0.1721191406249955
-0.08460477150537635,0.1767883300781208,0.1767578124999958
-0.08459435483870967,0.1811523437500036,0.1811828613281286
-0.084583938172043,0.1851196289062533,0.1851196289062533
-0.08457352150537634,0.188720703125,0.188720703125
-0.08456310483870967,0.19207763671875,0.19207763671875
-0.08455268817204301,0.195220947265625,0.195220947265625
-0.08454227150537634,0.19781494140625,0.19781494140625
-0.08453185483870967,0.199981689453125,0.199981689453125
-0.08452143817204301,0.202056884765625,0.202056884765625
-0.08451102150537634,0.20428466796875,0.20428466796875
-0.08450060483870968,0.2061767578125,0.206207275390625
-0.08449018817204301,0.207489013671875,0.20745849609375
-0.08447977150537635,0.2086486816406239,0.2086486816406239
-0.08446935483870967,0.2102966308593764,0.2102966308593764
-0.084458938172043,0.2118530273437505,0.2118530273437505
-0.08444852150537634,0.21240234375,0.212371826171875
-0.08443810483870967,0.2125244140625,0.2125244140625
-0.08442768817204301,0.214324951171875,0.21429443359375
-0.08441727150537634,0.21759033203125,0.217559814453125
-0.08440685483870967,0.217498779296875,0.217498779296875
-0.08439643817204301,0.20751953125,0.20751953125
-0.08438602150537634,0.185577392578125,0.185577392578125
-0.08437560483870968,0.15655517578125,0.156524658203125
-0.08436518817204301,0.127685546875,0.127655029296875
-0.08435477150537635,0.1027526855468977,0.1027832031250226
-0.08434435483870968,0.08084106445314493,0.08087158203126993
-0.084333938172043,0.05981445312498146,0.05978393554685649
-0.08432352150537634,0.0394287109375,0.0394287109375
-0.08431310483870967,0.02056884765625,0.02056884765625
-0.08430268817204301,0.00347900390625,0.00347900390625
-0.08429227150537634,-0.0125732421875,-0.0125732421875
-0.08428185483870967,-0.0279541015625,-0.0279541015625
-0.08427143817204301,-0.042388916015625,-0.04241943359375
-0.08426102150537634,-0.055633544921875,-0.055633544921875
-0.08425060483870968,-0.06787109375,-0.06787109375
-0.08424018817204301,-0.07952880859375,-0.079559326171875
-0.08422977150537635,-0.09060668945311492,-0.09063720703123992
-0.08421935483870968,-0.1009826660156156,-0.1009826660156156
-0.084208938172043,-0.1105346679687581,-0.1105346679687581
-0.08419852150537634,-0.1194458007812576,-0.1194763183593826
-0.08418810483870967,-0.127838134765625,-0.1278076171875
-0.08417768817204301,-0.135589599609375,-0.1356201171875
-0.08416727150537634,-0.14276123046875,-0.142791748046875
-0.08415685483870967,-0.14947509765625,-0.149444580078125
-0.08414643817204301,-0.155792236328125,-0.15576171875
-0.08413602150537634,-0.16162109375,-0.16162109375
-0.08412560483870968,-0.166961669921875,-0.166961669921875
-0.08411518817204301,-0.171905517578125,-0.171905517578125
-0.08410477150537635,-0.1765747070312458,-0.1765747070312458
-0.08409435483870968,-0.180969238281246,-0.180969238281246
-0.084083938172043,-0.1848754882812532,-0.1848754882812532
-0.08407352150537634,-0.188385009765628,-0.188385009765628
-0.08406310483870967,-0.191680908203125,-0.191680908203125
-0.08405268817204301,-0.194793701171875,-0.19476318359375
-0.08404227150537634,-0.197418212890625,-0.197418212890625
-0.08403185483870967,-0.199615478515625,-0.199615478515625
-0.08402143817204301,-0.201751708984375,-0.20172119140625
-0.08401102150537634,-0.203948974609375,-0.203948974609375
-0.08400060483870968,-0.205841064453125,-0.205810546875
-0.08399018817204301,-0.207122802734375,-0.2071533203125
-0.08397977150537635,-0.208251953124999,-0.2083129882812489
-0.08396935483870968,-0.2099304199218735,-0.2099304199218735
-0.083958938172043,-0.2114562988281254,-0.2114562988281254
-0.08394852150537634,-0.2119445800781251,-0.2119445800781251
-0.08393810483870967,-0.212066650390625,-0.21209716796875
-0.08392768817204301,-0.21380615234375,-0.213836669921875
-0.08391727150537634,-0.217071533203125,-0.21710205078125
-0.08390685483870967,-0.217071533203125,-0.217041015625
-0.08389643817204301,-0.207122802734375,-0.2071533203125
-0.08388602150537634,-0.1854248046875,-0.1854248046875
-0.08387560483870968,-0.15673828125,-0.15673828125
-0.08386518817204301,-0.128265380859375,-0.1282958984375
-0.08385477150537635,-0.1036376953125224,-0.1036071777343975
-0.08384435483870968,-0.0817565917968949,-0.08175659179689487
-0.083833938172043,-0.06069946289060638,-0.0606689453124814
-0.08382352150537634,-0.04022216796873285,-0.04022216796873282
-0.08381310483870967,-0.0213623046875,-0.021331787109375
-0.08380268817204301,-0.004180908203125,-0.00421142578125
-0.08379227150537634,0.01190185546875,0.01190185546875
-0.08378185483870967,0.027313232421875,0.027313232421875
-0.08377143817204301,0.041748046875,0.041717529296875
-0.08376102150537634,0.054962158203125,0.054962158203125
-0.08375060483870968,0.067291259765625,0.067291259765625
-0.08374018817204301,0.07904052734375,0.07904052734375
-0.08372977150537635,0.09020996093748984,0.09020996093748984
-0.08371935483870968,0.1005859374999906,0.1005859374999906
-0.083708938172043,0.1101684570312582,0.1101989746093831
-0.08369852150537634,0.1191406250000077,0.1191406250000077
-0.08368810483870967,0.1275634765625,0.127593994140625
-0.083677688172043,0.13543701171875,0.135406494140625
-0.08366727150537634,0.14263916015625,0.14263916015625
-0.08365685483870967,0.149383544921875,0.1494140625
-0.08364643817204301,0.15576171875,0.15576171875
-0.08363602150537634,0.16168212890625,0.161651611328125
-0.08362560483870968,0.1669921875,0.167022705078125
-0.08361518817204301,0.17193603515625,0.171905517578125
-0.08360477150537635,0.1765747070312458,0.1766052246093707
-0.08359435483870968,0.180938720703121,0.180969238281246
-0.083583938172043,0.1849365234375032,0.1849365234375032
-0.08357352150537634,0.1884765625000031,0.188507080078128
-0.08356310483870967,0.191864013671875,0.191802978515625
-0.083552688172043,0.194915771484375,0.194915771484375
-0.08354227150537634,0.197540283203125,0.19757080078125
-0.08353185483870967,0.199737548828125,0.199737548828125
-0.08352143817204301,0.201904296875,0.201904296875
-0.08351102150537634,0.204071044921875,0.2041015625
-0.08350060483870968,0.20599365234375,0.205963134765625
-0.08349018817204301,0.20721435546875,0.207183837890625
-0.08347977150537635,0.2083740234374989,0.2083740234374989
-0.08346935483870968,0.2100830078124984,0.2100830078124984
-0.083458938172043,0.2116699218750005,0.2116394042968755
-0.08344852150537634,0.2122192382812501,0.2121887207031251
-0.08343810483870967,0.212310791015625,0.21234130859375
-0.083427688172043,0.21405029296875,0.21405029296875
-0.08341727150537634,0.21734619140625,0.21734619140625
-0.08340685483870967,0.217315673828125,0.21728515625
-0.08339643817204301,0.20733642578125,0.20733642578125
-0.08338602150537634,0.185394287109375,0.1854248046875
-0.08337560483870968,0.15631103515625,0.15631103515625
-0.08336518817204301,0.12750244140625,0.127471923828125
-0.08335477150537635,0.1026611328125226,0.1026916503906475
-0.08334435483870968,0.08074951171876993,0.08078002929689493
-0.083333938172043,0.05966186523435646,0.05969238281248143
-0.08332352150537634,0.03927612304685785,0.03927612304685782
-0.08331310483870967,0.020416259765625,0.0203857421875
-0.083302688172043,0.00335693359375,0.003326416015625
-0.08329227150537634,-0.0126953125,-0.0126953125
-0.08328185483870967,-0.028106689453125,-0.028106689453125
-0.08327143817204301,-0.042572021484375,-0.042572021484375
-0.08326102150537634,-0.0557861328125,-0.0557861328125
-0.08325060483870968,-0.068023681640625,-0.068023681640625
-0.08324018817204301,-0.07965087890625,-0.079681396484375
-0.08322977150537635,-0.09072875976561492,-0.09069824218748998
-0.08321935483870968,-0.1010131835937406,-0.1010131835937406
-0.083208938172043,-0.1105651855468831,-0.1105957031250081
-0.08319852150537634,-0.1195068359375076,-0.1195068359375077
-0.08318810483870967,-0.127899169921875,-0.1279296875
-0.083177688172043,-0.135711669921875,-0.135711669921875
-0.08316727150537634,-0.142852783203125,-0.142852783203125
-0.08315685483870967,-0.1495361328125,-0.149566650390625
-0.08314643817204301,-0.15582275390625,-0.155853271484375
-0.08313602150537634,-0.16168212890625,-0.16168212890625
-0.08312560483870968,-0.167022705078125,-0.167022705078125
-0.08311518817204301,-0.17193603515625,-0.17193603515625
-0.08310477150537635,-0.17657470703125,-0.176544189453125
-0.08309435483870968,-0.180938720703121,-0.180908203124996
-0.083083938172043,-0.1848754882812533,-0.1848754882812532
-0.08307352150537634,-0.1884765625000031,-0.1884460449218781
-0.08306310483870967,-0.19183349609375,-0.19183349609375
-0.083052688172043,-0.194915771484375,-0.194915771484375
-0.08304227150537634,-0.197509765625,-0.197509765625
-0.08303185483870967,-0.199676513671875,-0.199676513671875
-0.08302143817204301,-0.2017822265625,-0.201751708984375
-0.08301102150537634,-0.203948974609375,-0.2039794921875
-0.08300060483870968,-0.205841064453125,-0.205841064453125
-0.08299018817204301,-0.20709228515625,-0.207122802734375
-0.08297977150537635,-0.208343505859375,-0.20831298828125
-0.08296935483870968,-0.2099914550781235,-0.2099609374999985
-0.08295893817204301,-0.2114868164062486,-0.2114868164062486
-0.08294852150537634,-0.2119445800781251,-0.2119140625000001
-0.08293810483870967,-0.212066650390625,-0.2120361328125
-0.082927688172043,-0.2138671875,-0.2138671875
-0.08291727150537634,-0.2171630859375,-0.217193603515625
-0.08290685483870967,-0.21710205078125,-0.217071533203125
-0.08289643817204301,-0.2071533203125,-0.2071533203125
-0.08288602150537634,-0.1854248046875,-0.1854248046875
-0.08287560483870968,-0.156768798828125,-0.156768798828125
-0.08286518817204301,-0.128326416015625,-0.128326416015625
-0.08285477150537635,-0.1036376953125,-0.1036376953125
-0.08284435483870968,-0.08169555664064496,-0.08169555664064496
-0.08283393817204301,-0.06054687500001923,-0.06054687500001923
-0.08282352150537634,-0.04006958007810782,-0.04006958007810785
-0.08281310483870967,-0.02117919921873448,-0.02120971679685946
-0.082802688172043,-0.004119873046875,-0.004119873046875
-0.08279227150537634,0.011932373046875,0.011962890625
-0.08278185483870967,0.027435302734375,0.027435302734375
-0.08277143817204301,0.041961669921875,0.04193115234375
-0.08276102150537634,0.05517578125,0.05517578125
-0.08275060483870968,0.067413330078125,0.06744384765625
-0.08274018817204301,0.07916259765625,0.07916259765625
-0.08272977150537635,0.09033203125,0.09033203125
-0.08271935483870968,0.1007385253906155,0.1007385253906155
-0.08270893817204301,0.1103210449218663,0.1103210449218663
-0.08269852150537634,0.1192932128906327,0.1192626953125077
-0.08268810483870967,0.1277770996093821,0.1277465820312572
-0.082677688172043,0.1356201171875,0.135650634765625
-0.08266727150537634,0.142822265625,0.142822265625
-0.08265685483870967,0.1495361328125,0.1495361328125
-0.08264643817204301,0.1558837890625,0.1558837890625
-0.08263602150537634,0.1617431640625,0.161773681640625
-0.08262560483870968,0.167144775390625,0.167144775390625
-0.08261518817204301,0.172088623046875,0.172088623046875
-0.08260477150537635,0.1767578125,0.1767578125
-0.08259435483870968,0.181121826171871,0.181121826171871
-0.08258393817204301,0.1850585937499964,0.1850585937499964
-0.08257352150537633,0.1885986328125031,0.1885986328125031
-0.08256310483870967,0.1919860839843779,0.1919860839843779
-0.082552688172043,0.1951904296875,0.1951904296875
-0.08254227150537634,0.1978759765625,0.197845458984375
-0.08253185483870967,0.199981689453125,0.20001220703125
-0.08252143817204301,0.202056884765625,0.202056884765625
-0.08251102150537634,0.204254150390625,0.204254150390625
-0.08250060483870968,0.206146240234375,0.206146240234375
-0.08249018817204301,0.20745849609375,0.20745849609375
-0.08247977150537635,0.208587646484375,0.208587646484375
-0.08246935483870968,0.2102355957031235,0.2102050781249985
-0.08245893817204301,0.2117919921874986,0.2117919921874986
-0.08244852150537633,0.2123413085937502,0.2123718261718751
-0.08243810483870967,0.2125244140625016,0.2124938964843766
-0.082427688172043,0.214263916015625,0.21429443359375
-0.08241727150537634,0.217559814453125,0.217529296875
-0.08240685483870967,0.217529296875,0.217529296875
-0.08239643817204301,0.20758056640625,0.20758056640625
-0.08238602150537634,0.185546875,0.185546875
-0.08237560483870968,0.15643310546875,0.156494140625
-0.08236518817204301,0.12762451171875,0.12762451171875
-0.08235477150537635,0.102752685546875,0.102783203125
-0.08234435483870968,0.08084106445314493,0.08084106445314496
-0.08233393817204301,0.05972290039064421,0.05972290039064421
-0.08232352150537633,0.03927612304685787,0.03924560546873287
-0.08231310483870967,0.02044677734373448,0.02041625976560951
-0.082302688172043,0.003387451171875,0.003387451171875
-0.08229227150537634,-0.012603759765625,-0.01263427734375
-0.08228185483870967,-0.028045654296875,-0.028045654296875
-0.08227143817204301,-0.042510986328125,-0.04248046875
-0.08226102150537634,-0.055694580078125,-0.055694580078125
-0.08225060483870968,-0.067901611328125,-0.067901611328125
-0.08224018817204301,-0.079559326171875,-0.07958984375
-0.08222977150537635,-0.0906982421875,-0.0906982421875
-0.08221935483870968,-0.1010131835937406,-0.1010131835937406
-0.08220893817204301,-0.1105346679687413,-0.1105346679687413
-0.08219852150537633,-0.1194763183593826,-0.1194763183593826
-0.08218810483870967,-0.1278381347656321,-0.1278686523437571
-0.082177688172043,-0.1356201171875,-0.135650634765625
-0.08216727150537634,-0.14276123046875,-0.14276123046875
-0.08215685483870967,-0.149505615234375,-0.14947509765625
-0.08214643817204301,-0.155792236328125,-0.155792236328125
-0.08213602150537634,-0.161651611328125,-0.16168212890625
-0.08212560483870968,-0.166961669921875,-0.1669921875
-0.08211518817204301,-0.171905517578125,-0.171905517578125
-0.08210477150537634,-0.17657470703125,-0.17657470703125
-0.08209435483870968,-0.180969238281246,-0.180969238281246
-0.08208393817204301,-0.1849060058593714,-0.1848754882812464
-0.08207352150537633,-0.1884155273437531,-0.188446044921878
-0.08206310483870967,-0.1917724609375028,-0.1917724609375028
-0.082052688172043,-0.194854736328125,-0.194854736328125
-0.08204227150537634,-0.197509765625,-0.197479248046875
-0.08203185483870967,-0.199676513671875,-0.199676513671875
-0.08202143817204301,-0.2017822265625,-0.201812744140625
-0.08201102150537634,-0.204010009765625,-0.2039794921875
-0.08200060483870968,-0.205780029296875,-0.205810546875
-0.08199018817204301,-0.20703125,-0.207061767578125
-0.08197977150537634,-0.208251953125,-0.208221435546875
-0.08196935483870968,-0.2099304199218735,-0.2098999023437485
-0.08195893817204301,-0.2114562988281236,-0.2114257812499986
-0.08194852150537633,-0.2119445800781251,-0.2119445800781251
-0.08193810483870967,-0.2120971679687517,-0.2120666503906267
-0.081927688172043,-0.21392822265625,-0.21392822265625
-0.08191727150537634,-0.217193603515625,-0.217193603515625
-0.08190685483870967,-0.217071533203125,-0.217071533203125
-0.08189643817204301,-0.20709228515625,-0.20709228515625
-0.08188602150537634,-0.1854248046875,-0.1854248046875
-0.08187560483870968,-0.156829833984375,-0.156829833984375
-0.08186518817204301,-0.128448486328125,-0.128448486328125
-0.08185477150537634,-0.103729248046875,-0.103729248046875
-0.08184435483870968,-0.081787109375,-0.081787109375
-0.08183393817204301,-0.06066894531251921,-0.06063842773439423
-0.08182352150537633,-0.04019165039060785,-0.04019165039060785
-0.08181310483870967,-0.0213317871093594,-0.0213317871093594
-0.081802688172043,-0.004180908203125,-0.004180908203125
-0.08179227150537634,0.01190185546875,0.011962890625
-0.08178185483870967,0.027374267578125,0.02740478515625
-0.08177143817204301,0.04180908203125,0.04180908203125
-0.08176102150537634,0.055023193359375,0.055023193359375
-0.08175060483870968,0.06732177734375,0.06732177734375
-0.08174018817204301,0.07904052734375,0.079010009765625
-0.08172977150537634,0.090240478515625,0.09027099609375
-0.08171935483870968,0.100616455078125,0.100616455078125
-0.08170893817204301,0.1101989746093663,0.1101989746093663
-0.08169852150537635,0.1191711425781168,0.1191711425781168
-0.08168810483870967,0.1276550292968822,0.1276245117187572
-0.081677688172043,0.135528564453125,0.135528564453125
-0.08166727150537634,0.14276123046875,0.14276123046875
-0.08165685483870967,0.14947509765625,0.149505615234375
-0.08164643817204301,0.15582275390625,0.155792236328125
-0.08163602150537634,0.161712646484375,0.16168212890625
-0.08162560483870968,0.16705322265625,0.16705322265625
-0.08161518817204301,0.1719970703125,0.1719970703125
-0.08160477150537634,0.1766357421875,0.176605224609375
-0.08159435483870968,0.180999755859375,0.18096923828125
-0.08158393817204301,0.1849365234374964,0.1849365234374964
-0.08157352150537635,0.1885681152343717,0.1885375976562467
-0.08156310483870967,0.1919555664062528,0.1919250488281279
-0.081552688172043,0.1950683593750023,0.1950683593750023
-0.08154227150537634,0.1976318359375,0.1976318359375
-0.08153185483870967,0.19976806640625,0.199798583984375
